7segments/simulation/qsim/segment7.msim.vcd
$comment
	File created using the following command:
		vcd file segment7.msim.vcd -direction
$end
$date
	Mon Aug 16 23:21:39 2021
$end
$version
	ModelSim Version 2020.1
$end
$timescale
	1ps
$end

$scope module segment7_vlg_vec_tst $end
$var reg 1 ! A $end
$var reg 1 " B $end
$var reg 1 # C $end
$var reg 1 $ D $end
$var wire 1 % a $end
$var wire 1 & b $end
$var wire 1 ' c $end
$var wire 1 ( d $end
$var wire 1 ) e $end
$var wire 1 * f $end
$var wire 1 + g $end

$scope module i1 $end
$var wire 1 , gnd $end
$var wire 1 - vcc $end
$var wire 1 . unknown $end
$var tri1 1 / devclrn $end
$var tri1 1 0 devpor $end
$var tri1 1 1 devoe $end
$var wire 1 2 ~QUARTUS_CREATED_GND~I_combout $end
$var wire 1 3 C~input_o $end
$var wire 1 4 A~input_o $end
$var wire 1 5 D~input_o $end
$var wire 1 6 B~input_o $end
$var wire 1 7 Dout~0_combout $end
$var wire 1 8 WideOr0~0_combout $end
$var wire 1 9 WideOr1~0_combout $end
$var wire 1 : WideOr2~0_combout $end
$var wire 1 ; WideOr3~0_combout $end
$var wire 1 < WideOr4~0_combout $end
$var wire 1 = WideOr5~0_combout $end
$upscope $end
$upscope $end
$enddefinitions $end
#0
$dumpvars
0!
0"
0#
0$
1%
1&
1'
1(
1)
1*
0+
0,
1-
x.
1/
10
11
02
03
04
05
06
07
08
09
0:
0;
0<
0=
$end
#96000
1$
15
1<
1;
1:
17
0%
0(
0)
0*
#192000
1#
0$
13
05
0;
0:
19
07
1=
1+
1%
0'
1(
1)
#288000
1$
15
1;
09
1'
0)
#384000
1"
0#
0$
16
03
05
0<
1:
17
0%
0(
1*
#480000
1$
15
0:
18
07
1%
0&
1(
#576000
1#
0$
13
05
0;
1)
#672000
1$
15
1<
1;
1:
08
0=
0+
1&
0(
0)
0*
#768000
1!
0"
0#
0$
14
06
03
05
0<
0;
0:
1=
1+
1(
1)
1*
#864000
1$
15
1;
0)
#960000
1#
0$
13
05
0;
19
18
0&
0'
1)
